Account Id,Fullname,House No,Building Name,Street Type,Street Name,Section,Postal Code,City,State Name
asnaida@unifi,Haidah Bt Hussaini,,,,,,,Ipoh,Perak
niezan@unifi,,,,,,,,Bangi,Selangor
ayeen79@unifi,,,,,,,,,
khalil@streamyx,,,,,,,,,
cikdet@unifi,,,,,,,,Bangi,Selangor
sharulnizar203@unifi,,,,,,,,Shah Alam,Selangor
